<?xml version="1.0" encoding="UTF-8"?>
<graphml xmlns="http://graphml.graphdrawing.org/xmlns"
         xmlns:xsi="http://www.w3.org/2001/XMLSchema-instance"
         xsi:schemaLocation="http://graphml.graphdrawing.org/xmlns
         http://graphml.graphdrawing.org/xmlns/1.0/graphml.xsd">
<!-- Created by igraph -->
  <key id="g_name" for="graph" attr.name="name" attr.type="string"/>
  <key id="g_type" for="graph" attr.name="type" attr.type="string"/>
  <key id="g_loops" for="graph" attr.name="loops" attr.type="boolean"/>
  <key id="g_p" for="graph" attr.name="p" attr.type="double"/>
  <graph id="G" edgedefault="directed">
    <data key="g_name">Erdos renyi (gnp) graph</data>
    <data key="g_type">gnp</data>
    <data key="g_loops">false</data>
    <data key="g_p">0.6</data>
    <node id="n0">
    </node>
    <node id="n1">
    </node>
    <node id="n2">
    </node>
    <node id="n3">
    </node>
    <node id="n4">
    </node>
    <node id="n5">
    </node>
    <node id="n6">
    </node>
    <node id="n7">
    </node>
    <node id="n8">
    </node>
    <node id="n9">
    </node>
    <node id="n10">
    </node>
    <node id="n11">
    </node>
    <node id="n12">
    </node>
    <node id="n13">
    </node>
    <node id="n14">
    </node>
    <node id="n15">
    </node>
    <node id="n16">
    </node>
    <node id="n17">
    </node>
    <node id="n18">
    </node>
    <node id="n19">
    </node>
    <node id="n20">
    </node>
    <node id="n21">
    </node>
    <node id="n22">
    </node>
    <node id="n23">
    </node>
    <node id="n24">
    </node>
    <node id="n25">
    </node>
    <node id="n26">
    </node>
    <node id="n27">
    </node>
    <node id="n28">
    </node>
    <node id="n29">
    </node>
    <node id="n30">
    </node>
    <node id="n31">
    </node>
    <node id="n32">
    </node>
    <node id="n33">
    </node>
    <node id="n34">
    </node>
    <node id="n35">
    </node>
    <node id="n36">
    </node>
    <node id="n37">
    </node>
    <node id="n38">
    </node>
    <node id="n39">
    </node>
    <node id="n40">
    </node>
    <node id="n41">
    </node>
    <node id="n42">
    </node>
    <node id="n43">
    </node>
    <node id="n44">
    </node>
    <node id="n45">
    </node>
    <node id="n46">
    </node>
    <node id="n47">
    </node>
    <edge source="n1" target="n0">
    </edge>
    <edge source="n4" target="n0">
    </edge>
    <edge source="n5" target="n0">
    </edge>
    <edge source="n6" target="n0">
    </edge>
    <edge source="n7" target="n0">
    </edge>
    <edge source="n12" target="n0">
    </edge>
    <edge source="n15" target="n0">
    </edge>
    <edge source="n16" target="n0">
    </edge>
    <edge source="n17" target="n0">
    </edge>
    <edge source="n18" target="n0">
    </edge>
    <edge source="n20" target="n0">
    </edge>
    <edge source="n23" target="n0">
    </edge>
    <edge source="n24" target="n0">
    </edge>
    <edge source="n25" target="n0">
    </edge>
    <edge source="n27" target="n0">
    </edge>
    <edge source="n28" target="n0">
    </edge>
    <edge source="n29" target="n0">
    </edge>
    <edge source="n32" target="n0">
    </edge>
    <edge source="n35" target="n0">
    </edge>
    <edge source="n36" target="n0">
    </edge>
    <edge source="n37" target="n0">
    </edge>
    <edge source="n39" target="n0">
    </edge>
    <edge source="n40" target="n0">
    </edge>
    <edge source="n41" target="n0">
    </edge>
    <edge source="n42" target="n0">
    </edge>
    <edge source="n44" target="n0">
    </edge>
    <edge source="n45" target="n0">
    </edge>
    <edge source="n46" target="n0">
    </edge>
    <edge source="n47" target="n0">
    </edge>
    <edge source="n1" target="n47">
    </edge>
    <edge source="n2" target="n1">
    </edge>
    <edge source="n3" target="n1">
    </edge>
    <edge source="n6" target="n1">
    </edge>
    <edge source="n7" target="n1">
    </edge>
    <edge source="n8" target="n1">
    </edge>
    <edge source="n9" target="n1">
    </edge>
    <edge source="n12" target="n1">
    </edge>
    <edge source="n14" target="n1">
    </edge>
    <edge source="n15" target="n1">
    </edge>
    <edge source="n16" target="n1">
    </edge>
    <edge source="n18" target="n1">
    </edge>
    <edge source="n19" target="n1">
    </edge>
    <edge source="n23" target="n1">
    </edge>
    <edge source="n24" target="n1">
    </edge>
    <edge source="n25" target="n1">
    </edge>
    <edge source="n26" target="n1">
    </edge>
    <edge source="n27" target="n1">
    </edge>
    <edge source="n28" target="n1">
    </edge>
    <edge source="n29" target="n1">
    </edge>
    <edge source="n30" target="n1">
    </edge>
    <edge source="n31" target="n1">
    </edge>
    <edge source="n33" target="n1">
    </edge>
    <edge source="n36" target="n1">
    </edge>
    <edge source="n37" target="n1">
    </edge>
    <edge source="n40" target="n1">
    </edge>
    <edge source="n41" target="n1">
    </edge>
    <edge source="n43" target="n1">
    </edge>
    <edge source="n44" target="n1">
    </edge>
    <edge source="n46" target="n1">
    </edge>
    <edge source="n0" target="n2">
    </edge>
    <edge source="n1" target="n2">
    </edge>
    <edge source="n2" target="n47">
    </edge>
    <edge source="n4" target="n2">
    </edge>
    <edge source="n7" target="n2">
    </edge>
    <edge source="n8" target="n2">
    </edge>
    <edge source="n9" target="n2">
    </edge>
    <edge source="n10" target="n2">
    </edge>
    <edge source="n11" target="n2">
    </edge>
    <edge source="n13" target="n2">
    </edge>
    <edge source="n14" target="n2">
    </edge>
    <edge source="n17" target="n2">
    </edge>
    <edge source="n19" target="n2">
    </edge>
    <edge source="n21" target="n2">
    </edge>
    <edge source="n22" target="n2">
    </edge>
    <edge source="n23" target="n2">
    </edge>
    <edge source="n24" target="n2">
    </edge>
    <edge source="n25" target="n2">
    </edge>
    <edge source="n27" target="n2">
    </edge>
    <edge source="n28" target="n2">
    </edge>
    <edge source="n29" target="n2">
    </edge>
    <edge source="n30" target="n2">
    </edge>
    <edge source="n33" target="n2">
    </edge>
    <edge source="n34" target="n2">
    </edge>
    <edge source="n35" target="n2">
    </edge>
    <edge source="n37" target="n2">
    </edge>
    <edge source="n38" target="n2">
    </edge>
    <edge source="n39" target="n2">
    </edge>
    <edge source="n41" target="n2">
    </edge>
    <edge source="n42" target="n2">
    </edge>
    <edge source="n43" target="n2">
    </edge>
    <edge source="n44" target="n2">
    </edge>
    <edge source="n45" target="n2">
    </edge>
    <edge source="n46" target="n2">
    </edge>
    <edge source="n47" target="n2">
    </edge>
    <edge source="n0" target="n3">
    </edge>
    <edge source="n1" target="n3">
    </edge>
    <edge source="n3" target="n47">
    </edge>
    <edge source="n6" target="n3">
    </edge>
    <edge source="n8" target="n3">
    </edge>
    <edge source="n9" target="n3">
    </edge>
    <edge source="n10" target="n3">
    </edge>
    <edge source="n13" target="n3">
    </edge>
    <edge source="n14" target="n3">
    </edge>
    <edge source="n16" target="n3">
    </edge>
    <edge source="n17" target="n3">
    </edge>
    <edge source="n19" target="n3">
    </edge>
    <edge source="n20" target="n3">
    </edge>
    <edge source="n21" target="n3">
    </edge>
    <edge source="n22" target="n3">
    </edge>
    <edge source="n25" target="n3">
    </edge>
    <edge source="n26" target="n3">
    </edge>
    <edge source="n28" target="n3">
    </edge>
    <edge source="n33" target="n3">
    </edge>
    <edge source="n34" target="n3">
    </edge>
    <edge source="n35" target="n3">
    </edge>
    <edge source="n36" target="n3">
    </edge>
    <edge source="n38" target="n3">
    </edge>
    <edge source="n39" target="n3">
    </edge>
    <edge source="n42" target="n3">
    </edge>
    <edge source="n43" target="n3">
    </edge>
    <edge source="n44" target="n3">
    </edge>
    <edge source="n45" target="n3">
    </edge>
    <edge source="n46" target="n3">
    </edge>
    <edge source="n2" target="n4">
    </edge>
    <edge source="n3" target="n4">
    </edge>
    <edge source="n4" target="n47">
    </edge>
    <edge source="n5" target="n4">
    </edge>
    <edge source="n6" target="n4">
    </edge>
    <edge source="n8" target="n4">
    </edge>
    <edge source="n9" target="n4">
    </edge>
    <edge source="n11" target="n4">
    </edge>
    <edge source="n12" target="n4">
    </edge>
    <edge source="n13" target="n4">
    </edge>
    <edge source="n14" target="n4">
    </edge>
    <edge source="n16" target="n4">
    </edge>
    <edge source="n17" target="n4">
    </edge>
    <edge source="n19" target="n4">
    </edge>
    <edge source="n20" target="n4">
    </edge>
    <edge source="n23" target="n4">
    </edge>
    <edge source="n24" target="n4">
    </edge>
    <edge source="n26" target="n4">
    </edge>
    <edge source="n27" target="n4">
    </edge>
    <edge source="n28" target="n4">
    </edge>
    <edge source="n30" target="n4">
    </edge>
    <edge source="n31" target="n4">
    </edge>
    <edge source="n32" target="n4">
    </edge>
    <edge source="n33" target="n4">
    </edge>
    <edge source="n35" target="n4">
    </edge>
    <edge source="n36" target="n4">
    </edge>
    <edge source="n38" target="n4">
    </edge>
    <edge source="n40" target="n4">
    </edge>
    <edge source="n41" target="n4">
    </edge>
    <edge source="n42" target="n4">
    </edge>
    <edge source="n43" target="n4">
    </edge>
    <edge source="n44" target="n4">
    </edge>
    <edge source="n45" target="n4">
    </edge>
    <edge source="n0" target="n5">
    </edge>
    <edge source="n3" target="n5">
    </edge>
    <edge source="n5" target="n47">
    </edge>
    <edge source="n6" target="n5">
    </edge>
    <edge source="n8" target="n5">
    </edge>
    <edge source="n9" target="n5">
    </edge>
    <edge source="n10" target="n5">
    </edge>
    <edge source="n12" target="n5">
    </edge>
    <edge source="n13" target="n5">
    </edge>
    <edge source="n16" target="n5">
    </edge>
    <edge source="n18" target="n5">
    </edge>
    <edge source="n19" target="n5">
    </edge>
    <edge source="n20" target="n5">
    </edge>
    <edge source="n21" target="n5">
    </edge>
    <edge source="n22" target="n5">
    </edge>
    <edge source="n23" target="n5">
    </edge>
    <edge source="n24" target="n5">
    </edge>
    <edge source="n25" target="n5">
    </edge>
    <edge source="n26" target="n5">
    </edge>
    <edge source="n27" target="n5">
    </edge>
    <edge source="n28" target="n5">
    </edge>
    <edge source="n30" target="n5">
    </edge>
    <edge source="n32" target="n5">
    </edge>
    <edge source="n35" target="n5">
    </edge>
    <edge source="n37" target="n5">
    </edge>
    <edge source="n38" target="n5">
    </edge>
    <edge source="n39" target="n5">
    </edge>
    <edge source="n40" target="n5">
    </edge>
    <edge source="n41" target="n5">
    </edge>
    <edge source="n42" target="n5">
    </edge>
    <edge source="n43" target="n5">
    </edge>
    <edge source="n44" target="n5">
    </edge>
    <edge source="n45" target="n5">
    </edge>
    <edge source="n47" target="n5">
    </edge>
    <edge source="n0" target="n6">
    </edge>
    <edge source="n1" target="n6">
    </edge>
    <edge source="n2" target="n6">
    </edge>
    <edge source="n3" target="n6">
    </edge>
    <edge source="n5" target="n6">
    </edge>
    <edge source="n9" target="n6">
    </edge>
    <edge source="n11" target="n6">
    </edge>
    <edge source="n12" target="n6">
    </edge>
    <edge source="n13" target="n6">
    </edge>
    <edge source="n14" target="n6">
    </edge>
    <edge source="n17" target="n6">
    </edge>
    <edge source="n21" target="n6">
    </edge>
    <edge source="n22" target="n6">
    </edge>
    <edge source="n23" target="n6">
    </edge>
    <edge source="n24" target="n6">
    </edge>
    <edge source="n25" target="n6">
    </edge>
    <edge source="n26" target="n6">
    </edge>
    <edge source="n27" target="n6">
    </edge>
    <edge source="n33" target="n6">
    </edge>
    <edge source="n34" target="n6">
    </edge>
    <edge source="n35" target="n6">
    </edge>
    <edge source="n38" target="n6">
    </edge>
    <edge source="n39" target="n6">
    </edge>
    <edge source="n40" target="n6">
    </edge>
    <edge source="n41" target="n6">
    </edge>
    <edge source="n42" target="n6">
    </edge>
    <edge source="n43" target="n6">
    </edge>
    <edge source="n44" target="n6">
    </edge>
    <edge source="n45" target="n6">
    </edge>
    <edge source="n46" target="n6">
    </edge>
    <edge source="n0" target="n7">
    </edge>
    <edge source="n3" target="n7">
    </edge>
    <edge source="n5" target="n7">
    </edge>
    <edge source="n6" target="n7">
    </edge>
    <edge source="n7" target="n47">
    </edge>
    <edge source="n8" target="n7">
    </edge>
    <edge source="n9" target="n7">
    </edge>
    <edge source="n11" target="n7">
    </edge>
    <edge source="n12" target="n7">
    </edge>
    <edge source="n13" target="n7">
    </edge>
    <edge source="n14" target="n7">
    </edge>
    <edge source="n15" target="n7">
    </edge>
    <edge source="n16" target="n7">
    </edge>
    <edge source="n17" target="n7">
    </edge>
    <edge source="n18" target="n7">
    </edge>
    <edge source="n19" target="n7">
    </edge>
    <edge source="n22" target="n7">
    </edge>
    <edge source="n24" target="n7">
    </edge>
    <edge source="n26" target="n7">
    </edge>
    <edge source="n27" target="n7">
    </edge>
    <edge source="n28" target="n7">
    </edge>
    <edge source="n30" target="n7">
    </edge>
    <edge source="n31" target="n7">
    </edge>
    <edge source="n32" target="n7">
    </edge>
    <edge source="n33" target="n7">
    </edge>
    <edge source="n36" target="n7">
    </edge>
    <edge source="n37" target="n7">
    </edge>
    <edge source="n38" target="n7">
    </edge>
    <edge source="n43" target="n7">
    </edge>
    <edge source="n45" target="n7">
    </edge>
    <edge source="n46" target="n7">
    </edge>
    <edge source="n47" target="n7">
    </edge>
    <edge source="n0" target="n8">
    </edge>
    <edge source="n1" target="n8">
    </edge>
    <edge source="n3" target="n8">
    </edge>
    <edge source="n6" target="n8">
    </edge>
    <edge source="n7" target="n8">
    </edge>
    <edge source="n9" target="n8">
    </edge>
    <edge source="n10" target="n8">
    </edge>
    <edge source="n11" target="n8">
    </edge>
    <edge source="n12" target="n8">
    </edge>
    <edge source="n13" target="n8">
    </edge>
    <edge source="n15" target="n8">
    </edge>
    <edge source="n18" target="n8">
    </edge>
    <edge source="n19" target="n8">
    </edge>
    <edge source="n20" target="n8">
    </edge>
    <edge source="n21" target="n8">
    </edge>
    <edge source="n23" target="n8">
    </edge>
    <edge source="n24" target="n8">
    </edge>
    <edge source="n25" target="n8">
    </edge>
    <edge source="n29" target="n8">
    </edge>
    <edge source="n30" target="n8">
    </edge>
    <edge source="n32" target="n8">
    </edge>
    <edge source="n33" target="n8">
    </edge>
    <edge source="n36" target="n8">
    </edge>
    <edge source="n37" target="n8">
    </edge>
    <edge source="n39" target="n8">
    </edge>
    <edge source="n40" target="n8">
    </edge>
    <edge source="n43" target="n8">
    </edge>
    <edge source="n45" target="n8">
    </edge>
    <edge source="n46" target="n8">
    </edge>
    <edge source="n0" target="n9">
    </edge>
    <edge source="n1" target="n9">
    </edge>
    <edge source="n2" target="n9">
    </edge>
    <edge source="n3" target="n9">
    </edge>
    <edge source="n4" target="n9">
    </edge>
    <edge source="n6" target="n9">
    </edge>
    <edge source="n7" target="n9">
    </edge>
    <edge source="n9" target="n47">
    </edge>
    <edge source="n11" target="n9">
    </edge>
    <edge source="n13" target="n9">
    </edge>
    <edge source="n14" target="n9">
    </edge>
    <edge source="n15" target="n9">
    </edge>
    <edge source="n17" target="n9">
    </edge>
    <edge source="n18" target="n9">
    </edge>
    <edge source="n19" target="n9">
    </edge>
    <edge source="n20" target="n9">
    </edge>
    <edge source="n21" target="n9">
    </edge>
    <edge source="n22" target="n9">
    </edge>
    <edge source="n23" target="n9">
    </edge>
    <edge source="n24" target="n9">
    </edge>
    <edge source="n25" target="n9">
    </edge>
    <edge source="n28" target="n9">
    </edge>
    <edge source="n29" target="n9">
    </edge>
    <edge source="n30" target="n9">
    </edge>
    <edge source="n31" target="n9">
    </edge>
    <edge source="n33" target="n9">
    </edge>
    <edge source="n34" target="n9">
    </edge>
    <edge source="n36" target="n9">
    </edge>
    <edge source="n37" target="n9">
    </edge>
    <edge source="n39" target="n9">
    </edge>
    <edge source="n45" target="n9">
    </edge>
    <edge source="n47" target="n9">
    </edge>
    <edge source="n0" target="n10">
    </edge>
    <edge source="n1" target="n10">
    </edge>
    <edge source="n2" target="n10">
    </edge>
    <edge source="n3" target="n10">
    </edge>
    <edge source="n4" target="n10">
    </edge>
    <edge source="n6" target="n10">
    </edge>
    <edge source="n8" target="n10">
    </edge>
    <edge source="n10" target="n47">
    </edge>
    <edge source="n13" target="n10">
    </edge>
    <edge source="n14" target="n10">
    </edge>
    <edge source="n15" target="n10">
    </edge>
    <edge source="n18" target="n10">
    </edge>
    <edge source="n19" target="n10">
    </edge>
    <edge source="n20" target="n10">
    </edge>
    <edge source="n22" target="n10">
    </edge>
    <edge source="n23" target="n10">
    </edge>
    <edge source="n24" target="n10">
    </edge>
    <edge source="n25" target="n10">
    </edge>
    <edge source="n28" target="n10">
    </edge>
    <edge source="n29" target="n10">
    </edge>
    <edge source="n30" target="n10">
    </edge>
    <edge source="n31" target="n10">
    </edge>
    <edge source="n33" target="n10">
    </edge>
    <edge source="n34" target="n10">
    </edge>
    <edge source="n35" target="n10">
    </edge>
    <edge source="n36" target="n10">
    </edge>
    <edge source="n37" target="n10">
    </edge>
    <edge source="n42" target="n10">
    </edge>
    <edge source="n43" target="n10">
    </edge>
    <edge source="n44" target="n10">
    </edge>
    <edge source="n46" target="n10">
    </edge>
    <edge source="n0" target="n11">
    </edge>
    <edge source="n1" target="n11">
    </edge>
    <edge source="n2" target="n11">
    </edge>
    <edge source="n4" target="n11">
    </edge>
    <edge source="n7" target="n11">
    </edge>
    <edge source="n9" target="n11">
    </edge>
    <edge source="n11" target="n47">
    </edge>
    <edge source="n12" target="n11">
    </edge>
    <edge source="n13" target="n11">
    </edge>
    <edge source="n14" target="n11">
    </edge>
    <edge source="n15" target="n11">
    </edge>
    <edge source="n16" target="n11">
    </edge>
    <edge source="n17" target="n11">
    </edge>
    <edge source="n18" target="n11">
    </edge>
    <edge source="n20" target="n11">
    </edge>
    <edge source="n21" target="n11">
    </edge>
    <edge source="n22" target="n11">
    </edge>
    <edge source="n23" target="n11">
    </edge>
    <edge source="n24" target="n11">
    </edge>
    <edge source="n25" target="n11">
    </edge>
    <edge source="n26" target="n11">
    </edge>
    <edge source="n28" target="n11">
    </edge>
    <edge source="n29" target="n11">
    </edge>
    <edge source="n31" target="n11">
    </edge>
    <edge source="n32" target="n11">
    </edge>
    <edge source="n34" target="n11">
    </edge>
    <edge source="n36" target="n11">
    </edge>
    <edge source="n37" target="n11">
    </edge>
    <edge source="n38" target="n11">
    </edge>
    <edge source="n39" target="n11">
    </edge>
    <edge source="n40" target="n11">
    </edge>
    <edge source="n42" target="n11">
    </edge>
    <edge source="n45" target="n11">
    </edge>
    <edge source="n46" target="n11">
    </edge>
    <edge source="n0" target="n12">
    </edge>
    <edge source="n1" target="n12">
    </edge>
    <edge source="n6" target="n12">
    </edge>
    <edge source="n7" target="n12">
    </edge>
    <edge source="n9" target="n12">
    </edge>
    <edge source="n10" target="n12">
    </edge>
    <edge source="n11" target="n12">
    </edge>
    <edge source="n12" target="n47">
    </edge>
    <edge source="n13" target="n12">
    </edge>
    <edge source="n14" target="n12">
    </edge>
    <edge source="n15" target="n12">
    </edge>
    <edge source="n17" target="n12">
    </edge>
    <edge source="n19" target="n12">
    </edge>
    <edge source="n20" target="n12">
    </edge>
    <edge source="n21" target="n12">
    </edge>
    <edge source="n23" target="n12">
    </edge>
    <edge source="n24" target="n12">
    </edge>
    <edge source="n25" target="n12">
    </edge>
    <edge source="n27" target="n12">
    </edge>
    <edge source="n28" target="n12">
    </edge>
    <edge source="n29" target="n12">
    </edge>
    <edge source="n32" target="n12">
    </edge>
    <edge source="n33" target="n12">
    </edge>
    <edge source="n35" target="n12">
    </edge>
    <edge source="n36" target="n12">
    </edge>
    <edge source="n37" target="n12">
    </edge>
    <edge source="n40" target="n12">
    </edge>
    <edge source="n42" target="n12">
    </edge>
    <edge source="n44" target="n12">
    </edge>
    <edge source="n45" target="n12">
    </edge>
    <edge source="n2" target="n13">
    </edge>
    <edge source="n3" target="n13">
    </edge>
    <edge source="n5" target="n13">
    </edge>
    <edge source="n8" target="n13">
    </edge>
    <edge source="n9" target="n13">
    </edge>
    <edge source="n12" target="n13">
    </edge>
    <edge source="n13" target="n47">
    </edge>
    <edge source="n15" target="n13">
    </edge>
    <edge source="n16" target="n13">
    </edge>
    <edge source="n17" target="n13">
    </edge>
    <edge source="n18" target="n13">
    </edge>
    <edge source="n19" target="n13">
    </edge>
    <edge source="n21" target="n13">
    </edge>
    <edge source="n22" target="n13">
    </edge>
    <edge source="n23" target="n13">
    </edge>
    <edge source="n24" target="n13">
    </edge>
    <edge source="n25" target="n13">
    </edge>
    <edge source="n26" target="n13">
    </edge>
    <edge source="n27" target="n13">
    </edge>
    <edge source="n29" target="n13">
    </edge>
    <edge source="n30" target="n13">
    </edge>
    <edge source="n31" target="n13">
    </edge>
    <edge source="n32" target="n13">
    </edge>
    <edge source="n37" target="n13">
    </edge>
    <edge source="n39" target="n13">
    </edge>
    <edge source="n40" target="n13">
    </edge>
    <edge source="n42" target="n13">
    </edge>
    <edge source="n43" target="n13">
    </edge>
    <edge source="n47" target="n13">
    </edge>
    <edge source="n0" target="n14">
    </edge>
    <edge source="n1" target="n14">
    </edge>
    <edge source="n2" target="n14">
    </edge>
    <edge source="n3" target="n14">
    </edge>
    <edge source="n7" target="n14">
    </edge>
    <edge source="n8" target="n14">
    </edge>
    <edge source="n10" target="n14">
    </edge>
    <edge source="n12" target="n14">
    </edge>
    <edge source="n15" target="n14">
    </edge>
    <edge source="n18" target="n14">
    </edge>
    <edge source="n20" target="n14">
    </edge>
    <edge source="n21" target="n14">
    </edge>
    <edge source="n23" target="n14">
    </edge>
    <edge source="n24" target="n14">
    </edge>
    <edge source="n25" target="n14">
    </edge>
    <edge source="n29" target="n14">
    </edge>
    <edge source="n33" target="n14">
    </edge>
    <edge source="n34" target="n14">
    </edge>
    <edge source="n35" target="n14">
    </edge>
    <edge source="n41" target="n14">
    </edge>
    <edge source="n42" target="n14">
    </edge>
    <edge source="n46" target="n14">
    </edge>
    <edge source="n0" target="n15">
    </edge>
    <edge source="n4" target="n15">
    </edge>
    <edge source="n6" target="n15">
    </edge>
    <edge source="n7" target="n15">
    </edge>
    <edge source="n8" target="n15">
    </edge>
    <edge source="n9" target="n15">
    </edge>
    <edge source="n10" target="n15">
    </edge>
    <edge source="n11" target="n15">
    </edge>
    <edge source="n13" target="n15">
    </edge>
    <edge source="n14" target="n15">
    </edge>
    <edge source="n16" target="n15">
    </edge>
    <edge source="n18" target="n15">
    </edge>
    <edge source="n20" target="n15">
    </edge>
    <edge source="n22" target="n15">
    </edge>
    <edge source="n23" target="n15">
    </edge>
    <edge source="n26" target="n15">
    </edge>
    <edge source="n28" target="n15">
    </edge>
    <edge source="n29" target="n15">
    </edge>
    <edge source="n30" target="n15">
    </edge>
    <edge source="n32" target="n15">
    </edge>
    <edge source="n35" target="n15">
    </edge>
    <edge source="n36" target="n15">
    </edge>
    <edge source="n37" target="n15">
    </edge>
    <edge source="n38" target="n15">
    </edge>
    <edge source="n39" target="n15">
    </edge>
    <edge source="n40" target="n15">
    </edge>
    <edge source="n41" target="n15">
    </edge>
    <edge source="n42" target="n15">
    </edge>
    <edge source="n44" target="n15">
    </edge>
    <edge source="n45" target="n15">
    </edge>
    <edge source="n46" target="n15">
    </edge>
    <edge source="n47" target="n15">
    </edge>
    <edge source="n0" target="n16">
    </edge>
    <edge source="n2" target="n16">
    </edge>
    <edge source="n3" target="n16">
    </edge>
    <edge source="n5" target="n16">
    </edge>
    <edge source="n6" target="n16">
    </edge>
    <edge source="n7" target="n16">
    </edge>
    <edge source="n9" target="n16">
    </edge>
    <edge source="n10" target="n16">
    </edge>
    <edge source="n11" target="n16">
    </edge>
    <edge source="n12" target="n16">
    </edge>
    <edge source="n13" target="n16">
    </edge>
    <edge source="n14" target="n16">
    </edge>
    <edge source="n15" target="n16">
    </edge>
    <edge source="n16" target="n47">
    </edge>
    <edge source="n18" target="n16">
    </edge>
    <edge source="n19" target="n16">
    </edge>
    <edge source="n22" target="n16">
    </edge>
    <edge source="n24" target="n16">
    </edge>
    <edge source="n25" target="n16">
    </edge>
    <edge source="n27" target="n16">
    </edge>
    <edge source="n28" target="n16">
    </edge>
    <edge source="n29" target="n16">
    </edge>
    <edge source="n31" target="n16">
    </edge>
    <edge source="n33" target="n16">
    </edge>
    <edge source="n34" target="n16">
    </edge>
    <edge source="n35" target="n16">
    </edge>
    <edge source="n37" target="n16">
    </edge>
    <edge source="n38" target="n16">
    </edge>
    <edge source="n39" target="n16">
    </edge>
    <edge source="n41" target="n16">
    </edge>
    <edge source="n43" target="n16">
    </edge>
    <edge source="n46" target="n16">
    </edge>
    <edge source="n2" target="n17">
    </edge>
    <edge source="n3" target="n17">
    </edge>
    <edge source="n4" target="n17">
    </edge>
    <edge source="n7" target="n17">
    </edge>
    <edge source="n9" target="n17">
    </edge>
    <edge source="n10" target="n17">
    </edge>
    <edge source="n11" target="n17">
    </edge>
    <edge source="n12" target="n17">
    </edge>
    <edge source="n13" target="n17">
    </edge>
    <edge source="n14" target="n17">
    </edge>
    <edge source="n15" target="n17">
    </edge>
    <edge source="n16" target="n17">
    </edge>
    <edge source="n18" target="n17">
    </edge>
    <edge source="n21" target="n17">
    </edge>
    <edge source="n22" target="n17">
    </edge>
    <edge source="n23" target="n17">
    </edge>
    <edge source="n24" target="n17">
    </edge>
    <edge source="n26" target="n17">
    </edge>
    <edge source="n27" target="n17">
    </edge>
    <edge source="n29" target="n17">
    </edge>
    <edge source="n30" target="n17">
    </edge>
    <edge source="n32" target="n17">
    </edge>
    <edge source="n35" target="n17">
    </edge>
    <edge source="n37" target="n17">
    </edge>
    <edge source="n39" target="n17">
    </edge>
    <edge source="n40" target="n17">
    </edge>
    <edge source="n41" target="n17">
    </edge>
    <edge source="n42" target="n17">
    </edge>
    <edge source="n43" target="n17">
    </edge>
    <edge source="n44" target="n17">
    </edge>
    <edge source="n45" target="n17">
    </edge>
    <edge source="n3" target="n18">
    </edge>
    <edge source="n4" target="n18">
    </edge>
    <edge source="n5" target="n18">
    </edge>
    <edge source="n6" target="n18">
    </edge>
    <edge source="n12" target="n18">
    </edge>
    <edge source="n14" target="n18">
    </edge>
    <edge source="n15" target="n18">
    </edge>
    <edge source="n17" target="n18">
    </edge>
    <edge source="n18" target="n47">
    </edge>
    <edge source="n19" target="n18">
    </edge>
    <edge source="n29" target="n18">
    </edge>
    <edge source="n30" target="n18">
    </edge>
    <edge source="n34" target="n18">
    </edge>
    <edge source="n37" target="n18">
    </edge>
    <edge source="n39" target="n18">
    </edge>
    <edge source="n41" target="n18">
    </edge>
    <edge source="n42" target="n18">
    </edge>
    <edge source="n43" target="n18">
    </edge>
    <edge source="n44" target="n18">
    </edge>
    <edge source="n45" target="n18">
    </edge>
    <edge source="n0" target="n19">
    </edge>
    <edge source="n5" target="n19">
    </edge>
    <edge source="n9" target="n19">
    </edge>
    <edge source="n13" target="n19">
    </edge>
    <edge source="n15" target="n19">
    </edge>
    <edge source="n16" target="n19">
    </edge>
    <edge source="n17" target="n19">
    </edge>
    <edge source="n18" target="n19">
    </edge>
    <edge source="n19" target="n47">
    </edge>
    <edge source="n20" target="n19">
    </edge>
    <edge source="n24" target="n19">
    </edge>
    <edge source="n26" target="n19">
    </edge>
    <edge source="n27" target="n19">
    </edge>
    <edge source="n29" target="n19">
    </edge>
    <edge source="n30" target="n19">
    </edge>
    <edge source="n31" target="n19">
    </edge>
    <edge source="n32" target="n19">
    </edge>
    <edge source="n36" target="n19">
    </edge>
    <edge source="n37" target="n19">
    </edge>
    <edge source="n38" target="n19">
    </edge>
    <edge source="n43" target="n19">
    </edge>
    <edge source="n46" target="n19">
    </edge>
    <edge source="n47" target="n19">
    </edge>
    <edge source="n0" target="n20">
    </edge>
    <edge source="n1" target="n20">
    </edge>
    <edge source="n2" target="n20">
    </edge>
    <edge source="n5" target="n20">
    </edge>
    <edge source="n6" target="n20">
    </edge>
    <edge source="n7" target="n20">
    </edge>
    <edge source="n8" target="n20">
    </edge>
    <edge source="n9" target="n20">
    </edge>
    <edge source="n10" target="n20">
    </edge>
    <edge source="n12" target="n20">
    </edge>
    <edge source="n13" target="n20">
    </edge>
    <edge source="n14" target="n20">
    </edge>
    <edge source="n15" target="n20">
    </edge>
    <edge source="n16" target="n20">
    </edge>
    <edge source="n17" target="n20">
    </edge>
    <edge source="n18" target="n20">
    </edge>
    <edge source="n23" target="n20">
    </edge>
    <edge source="n24" target="n20">
    </edge>
    <edge source="n26" target="n20">
    </edge>
    <edge source="n27" target="n20">
    </edge>
    <edge source="n29" target="n20">
    </edge>
    <edge source="n30" target="n20">
    </edge>
    <edge source="n34" target="n20">
    </edge>
    <edge source="n36" target="n20">
    </edge>
    <edge source="n39" target="n20">
    </edge>
    <edge source="n40" target="n20">
    </edge>
    <edge source="n42" target="n20">
    </edge>
    <edge source="n43" target="n20">
    </edge>
    <edge source="n46" target="n20">
    </edge>
    <edge source="n2" target="n21">
    </edge>
    <edge source="n4" target="n21">
    </edge>
    <edge source="n5" target="n21">
    </edge>
    <edge source="n8" target="n21">
    </edge>
    <edge source="n9" target="n21">
    </edge>
    <edge source="n11" target="n21">
    </edge>
    <edge source="n12" target="n21">
    </edge>
    <edge source="n13" target="n21">
    </edge>
    <edge source="n14" target="n21">
    </edge>
    <edge source="n15" target="n21">
    </edge>
    <edge source="n16" target="n21">
    </edge>
    <edge source="n18" target="n21">
    </edge>
    <edge source="n19" target="n21">
    </edge>
    <edge source="n22" target="n21">
    </edge>
    <edge source="n23" target="n21">
    </edge>
    <edge source="n24" target="n21">
    </edge>
    <edge source="n27" target="n21">
    </edge>
    <edge source="n28" target="n21">
    </edge>
    <edge source="n31" target="n21">
    </edge>
    <edge source="n33" target="n21">
    </edge>
    <edge source="n34" target="n21">
    </edge>
    <edge source="n36" target="n21">
    </edge>
    <edge source="n37" target="n21">
    </edge>
    <edge source="n38" target="n21">
    </edge>
    <edge source="n39" target="n21">
    </edge>
    <edge source="n40" target="n21">
    </edge>
    <edge source="n43" target="n21">
    </edge>
    <edge source="n44" target="n21">
    </edge>
    <edge source="n45" target="n21">
    </edge>
    <edge source="n46" target="n21">
    </edge>
    <edge source="n4" target="n22">
    </edge>
    <edge source="n6" target="n22">
    </edge>
    <edge source="n7" target="n22">
    </edge>
    <edge source="n10" target="n22">
    </edge>
    <edge source="n11" target="n22">
    </edge>
    <edge source="n13" target="n22">
    </edge>
    <edge source="n19" target="n22">
    </edge>
    <edge source="n21" target="n22">
    </edge>
    <edge source="n25" target="n22">
    </edge>
    <edge source="n27" target="n22">
    </edge>
    <edge source="n29" target="n22">
    </edge>
    <edge source="n30" target="n22">
    </edge>
    <edge source="n32" target="n22">
    </edge>
    <edge source="n33" target="n22">
    </edge>
    <edge source="n35" target="n22">
    </edge>
    <edge source="n36" target="n22">
    </edge>
    <edge source="n38" target="n22">
    </edge>
    <edge source="n39" target="n22">
    </edge>
    <edge source="n41" target="n22">
    </edge>
    <edge source="n42" target="n22">
    </edge>
    <edge source="n43" target="n22">
    </edge>
    <edge source="n44" target="n22">
    </edge>
    <edge source="n46" target="n22">
    </edge>
    <edge source="n1" target="n23">
    </edge>
    <edge source="n2" target="n23">
    </edge>
    <edge source="n4" target="n23">
    </edge>
    <edge source="n5" target="n23">
    </edge>
    <edge source="n8" target="n23">
    </edge>
    <edge source="n9" target="n23">
    </edge>
    <edge source="n10" target="n23">
    </edge>
    <edge source="n11" target="n23">
    </edge>
    <edge source="n13" target="n23">
    </edge>
    <edge source="n14" target="n23">
    </edge>
    <edge source="n15" target="n23">
    </edge>
    <edge source="n16" target="n23">
    </edge>
    <edge source="n21" target="n23">
    </edge>
    <edge source="n23" target="n47">
    </edge>
    <edge source="n24" target="n23">
    </edge>
    <edge source="n27" target="n23">
    </edge>
    <edge source="n28" target="n23">
    </edge>
    <edge source="n31" target="n23">
    </edge>
    <edge source="n33" target="n23">
    </edge>
    <edge source="n36" target="n23">
    </edge>
    <edge source="n37" target="n23">
    </edge>
    <edge source="n39" target="n23">
    </edge>
    <edge source="n41" target="n23">
    </edge>
    <edge source="n42" target="n23">
    </edge>
    <edge source="n43" target="n23">
    </edge>
    <edge source="n44" target="n23">
    </edge>
    <edge source="n45" target="n23">
    </edge>
    <edge source="n46" target="n23">
    </edge>
    <edge source="n47" target="n23">
    </edge>
    <edge source="n2" target="n24">
    </edge>
    <edge source="n3" target="n24">
    </edge>
    <edge source="n5" target="n24">
    </edge>
    <edge source="n7" target="n24">
    </edge>
    <edge source="n9" target="n24">
    </edge>
    <edge source="n11" target="n24">
    </edge>
    <edge source="n12" target="n24">
    </edge>
    <edge source="n13" target="n24">
    </edge>
    <edge source="n14" target="n24">
    </edge>
    <edge source="n15" target="n24">
    </edge>
    <edge source="n16" target="n24">
    </edge>
    <edge source="n17" target="n24">
    </edge>
    <edge source="n18" target="n24">
    </edge>
    <edge source="n19" target="n24">
    </edge>
    <edge source="n20" target="n24">
    </edge>
    <edge source="n22" target="n24">
    </edge>
    <edge source="n25" target="n24">
    </edge>
    <edge source="n26" target="n24">
    </edge>
    <edge source="n27" target="n24">
    </edge>
    <edge source="n29" target="n24">
    </edge>
    <edge source="n30" target="n24">
    </edge>
    <edge source="n31" target="n24">
    </edge>
    <edge source="n33" target="n24">
    </edge>
    <edge source="n35" target="n24">
    </edge>
    <edge source="n36" target="n24">
    </edge>
    <edge source="n40" target="n24">
    </edge>
    <edge source="n44" target="n24">
    </edge>
    <edge source="n46" target="n24">
    </edge>
    <edge source="n47" target="n24">
    </edge>
    <edge source="n2" target="n25">
    </edge>
    <edge source="n4" target="n25">
    </edge>
    <edge source="n6" target="n25">
    </edge>
    <edge source="n7" target="n25">
    </edge>
    <edge source="n8" target="n25">
    </edge>
    <edge source="n9" target="n25">
    </edge>
    <edge source="n14" target="n25">
    </edge>
    <edge source="n15" target="n25">
    </edge>
    <edge source="n16" target="n25">
    </edge>
    <edge source="n17" target="n25">
    </edge>
    <edge source="n20" target="n25">
    </edge>
    <edge source="n23" target="n25">
    </edge>
    <edge source="n25" target="n47">
    </edge>
    <edge source="n27" target="n25">
    </edge>
    <edge source="n28" target="n25">
    </edge>
    <edge source="n31" target="n25">
    </edge>
    <edge source="n32" target="n25">
    </edge>
    <edge source="n33" target="n25">
    </edge>
    <edge source="n34" target="n25">
    </edge>
    <edge source="n35" target="n25">
    </edge>
    <edge source="n36" target="n25">
    </edge>
    <edge source="n40" target="n25">
    </edge>
    <edge source="n41" target="n25">
    </edge>
    <edge source="n44" target="n25">
    </edge>
    <edge source="n47" target="n25">
    </edge>
    <edge source="n1" target="n26">
    </edge>
    <edge source="n2" target="n26">
    </edge>
    <edge source="n4" target="n26">
    </edge>
    <edge source="n5" target="n26">
    </edge>
    <edge source="n6" target="n26">
    </edge>
    <edge source="n10" target="n26">
    </edge>
    <edge source="n12" target="n26">
    </edge>
    <edge source="n13" target="n26">
    </edge>
    <edge source="n16" target="n26">
    </edge>
    <edge source="n17" target="n26">
    </edge>
    <edge source="n20" target="n26">
    </edge>
    <edge source="n21" target="n26">
    </edge>
    <edge source="n22" target="n26">
    </edge>
    <edge source="n23" target="n26">
    </edge>
    <edge source="n24" target="n26">
    </edge>
    <edge source="n28" target="n26">
    </edge>
    <edge source="n29" target="n26">
    </edge>
    <edge source="n30" target="n26">
    </edge>
    <edge source="n33" target="n26">
    </edge>
    <edge source="n36" target="n26">
    </edge>
    <edge source="n37" target="n26">
    </edge>
    <edge source="n38" target="n26">
    </edge>
    <edge source="n39" target="n26">
    </edge>
    <edge source="n40" target="n26">
    </edge>
    <edge source="n41" target="n26">
    </edge>
    <edge source="n45" target="n26">
    </edge>
    <edge source="n46" target="n26">
    </edge>
    <edge source="n47" target="n26">
    </edge>
    <edge source="n0" target="n27">
    </edge>
    <edge source="n2" target="n27">
    </edge>
    <edge source="n3" target="n27">
    </edge>
    <edge source="n4" target="n27">
    </edge>
    <edge source="n6" target="n27">
    </edge>
    <edge source="n7" target="n27">
    </edge>
    <edge source="n8" target="n27">
    </edge>
    <edge source="n10" target="n27">
    </edge>
    <edge source="n11" target="n27">
    </edge>
    <edge source="n12" target="n27">
    </edge>
    <edge source="n14" target="n27">
    </edge>
    <edge source="n15" target="n27">
    </edge>
    <edge source="n16" target="n27">
    </edge>
    <edge source="n17" target="n27">
    </edge>
    <edge source="n18" target="n27">
    </edge>
    <edge source="n19" target="n27">
    </edge>
    <edge source="n21" target="n27">
    </edge>
    <edge source="n22" target="n27">
    </edge>
    <edge source="n23" target="n27">
    </edge>
    <edge source="n24" target="n27">
    </edge>
    <edge source="n25" target="n27">
    </edge>
    <edge source="n26" target="n27">
    </edge>
    <edge source="n29" target="n27">
    </edge>
    <edge source="n30" target="n27">
    </edge>
    <edge source="n31" target="n27">
    </edge>
    <edge source="n32" target="n27">
    </edge>
    <edge source="n33" target="n27">
    </edge>
    <edge source="n34" target="n27">
    </edge>
    <edge source="n36" target="n27">
    </edge>
    <edge source="n38" target="n27">
    </edge>
    <edge source="n39" target="n27">
    </edge>
    <edge source="n42" target="n27">
    </edge>
    <edge source="n43" target="n27">
    </edge>
    <edge source="n45" target="n27">
    </edge>
    <edge source="n46" target="n27">
    </edge>
    <edge source="n47" target="n27">
    </edge>
    <edge source="n1" target="n28">
    </edge>
    <edge source="n2" target="n28">
    </edge>
    <edge source="n3" target="n28">
    </edge>
    <edge source="n6" target="n28">
    </edge>
    <edge source="n8" target="n28">
    </edge>
    <edge source="n10" target="n28">
    </edge>
    <edge source="n11" target="n28">
    </edge>
    <edge source="n12" target="n28">
    </edge>
    <edge source="n13" target="n28">
    </edge>
    <edge source="n14" target="n28">
    </edge>
    <edge source="n15" target="n28">
    </edge>
    <edge source="n16" target="n28">
    </edge>
    <edge source="n17" target="n28">
    </edge>
    <edge source="n18" target="n28">
    </edge>
    <edge source="n26" target="n28">
    </edge>
    <edge source="n28" target="n47">
    </edge>
    <edge source="n31" target="n28">
    </edge>
    <edge source="n34" target="n28">
    </edge>
    <edge source="n35" target="n28">
    </edge>
    <edge source="n36" target="n28">
    </edge>
    <edge source="n38" target="n28">
    </edge>
    <edge source="n39" target="n28">
    </edge>
    <edge source="n40" target="n28">
    </edge>
    <edge source="n41" target="n28">
    </edge>
    <edge source="n42" target="n28">
    </edge>
    <edge source="n43" target="n28">
    </edge>
    <edge source="n44" target="n28">
    </edge>
    <edge source="n0" target="n29">
    </edge>
    <edge source="n1" target="n29">
    </edge>
    <edge source="n4" target="n29">
    </edge>
    <edge source="n5" target="n29">
    </edge>
    <edge source="n8" target="n29">
    </edge>
    <edge source="n9" target="n29">
    </edge>
    <edge source="n11" target="n29">
    </edge>
    <edge source="n13" target="n29">
    </edge>
    <edge source="n14" target="n29">
    </edge>
    <edge source="n16" target="n29">
    </edge>
    <edge source="n17" target="n29">
    </edge>
    <edge source="n18" target="n29">
    </edge>
    <edge source="n20" target="n29">
    </edge>
    <edge source="n22" target="n29">
    </edge>
    <edge source="n24" target="n29">
    </edge>
    <edge source="n28" target="n29">
    </edge>
    <edge source="n29" target="n47">
    </edge>
    <edge source="n30" target="n29">
    </edge>
    <edge source="n31" target="n29">
    </edge>
    <edge source="n32" target="n29">
    </edge>
    <edge source="n33" target="n29">
    </edge>
    <edge source="n34" target="n29">
    </edge>
    <edge source="n35" target="n29">
    </edge>
    <edge source="n36" target="n29">
    </edge>
    <edge source="n39" target="n29">
    </edge>
    <edge source="n41" target="n29">
    </edge>
    <edge source="n42" target="n29">
    </edge>
    <edge source="n43" target="n29">
    </edge>
    <edge source="n47" target="n29">
    </edge>
    <edge source="n0" target="n30">
    </edge>
    <edge source="n1" target="n30">
    </edge>
    <edge source="n2" target="n30">
    </edge>
    <edge source="n3" target="n30">
    </edge>
    <edge source="n4" target="n30">
    </edge>
    <edge source="n6" target="n30">
    </edge>
    <edge source="n7" target="n30">
    </edge>
    <edge source="n8" target="n30">
    </edge>
    <edge source="n9" target="n30">
    </edge>
    <edge source="n10" target="n30">
    </edge>
    <edge source="n11" target="n30">
    </edge>
    <edge source="n14" target="n30">
    </edge>
    <edge source="n15" target="n30">
    </edge>
    <edge source="n23" target="n30">
    </edge>
    <edge source="n27" target="n30">
    </edge>
    <edge source="n29" target="n30">
    </edge>
    <edge source="n30" target="n47">
    </edge>
    <edge source="n31" target="n30">
    </edge>
    <edge source="n34" target="n30">
    </edge>
    <edge source="n35" target="n30">
    </edge>
    <edge source="n36" target="n30">
    </edge>
    <edge source="n37" target="n30">
    </edge>
    <edge source="n38" target="n30">
    </edge>
    <edge source="n39" target="n30">
    </edge>
    <edge source="n40" target="n30">
    </edge>
    <edge source="n46" target="n30">
    </edge>
    <edge source="n0" target="n31">
    </edge>
    <edge source="n2" target="n31">
    </edge>
    <edge source="n3" target="n31">
    </edge>
    <edge source="n5" target="n31">
    </edge>
    <edge source="n7" target="n31">
    </edge>
    <edge source="n8" target="n31">
    </edge>
    <edge source="n12" target="n31">
    </edge>
    <edge source="n15" target="n31">
    </edge>
    <edge source="n18" target="n31">
    </edge>
    <edge source="n19" target="n31">
    </edge>
    <edge source="n21" target="n31">
    </edge>
    <edge source="n22" target="n31">
    </edge>
    <edge source="n25" target="n31">
    </edge>
    <edge source="n26" target="n31">
    </edge>
    <edge source="n27" target="n31">
    </edge>
    <edge source="n29" target="n31">
    </edge>
    <edge source="n30" target="n31">
    </edge>
    <edge source="n32" target="n31">
    </edge>
    <edge source="n33" target="n31">
    </edge>
    <edge source="n35" target="n31">
    </edge>
    <edge source="n36" target="n31">
    </edge>
    <edge source="n37" target="n31">
    </edge>
    <edge source="n38" target="n31">
    </edge>
    <edge source="n39" target="n31">
    </edge>
    <edge source="n41" target="n31">
    </edge>
    <edge source="n42" target="n31">
    </edge>
    <edge source="n44" target="n31">
    </edge>
    <edge source="n46" target="n31">
    </edge>
    <edge source="n47" target="n31">
    </edge>
    <edge source="n0" target="n32">
    </edge>
    <edge source="n1" target="n32">
    </edge>
    <edge source="n2" target="n32">
    </edge>
    <edge source="n3" target="n32">
    </edge>
    <edge source="n4" target="n32">
    </edge>
    <edge source="n5" target="n32">
    </edge>
    <edge source="n6" target="n32">
    </edge>
    <edge source="n7" target="n32">
    </edge>
    <edge source="n8" target="n32">
    </edge>
    <edge source="n12" target="n32">
    </edge>
    <edge source="n13" target="n32">
    </edge>
    <edge source="n14" target="n32">
    </edge>
    <edge source="n15" target="n32">
    </edge>
    <edge source="n16" target="n32">
    </edge>
    <edge source="n17" target="n32">
    </edge>
    <edge source="n19" target="n32">
    </edge>
    <edge source="n21" target="n32">
    </edge>
    <edge source="n25" target="n32">
    </edge>
    <edge source="n26" target="n32">
    </edge>
    <edge source="n27" target="n32">
    </edge>
    <edge source="n28" target="n32">
    </edge>
    <edge source="n29" target="n32">
    </edge>
    <edge source="n31" target="n32">
    </edge>
    <edge source="n33" target="n32">
    </edge>
    <edge source="n36" target="n32">
    </edge>
    <edge source="n40" target="n32">
    </edge>
    <edge source="n41" target="n32">
    </edge>
    <edge source="n42" target="n32">
    </edge>
    <edge source="n44" target="n32">
    </edge>
    <edge source="n45" target="n32">
    </edge>
    <edge source="n46" target="n32">
    </edge>
    <edge source="n47" target="n32">
    </edge>
    <edge source="n0" target="n33">
    </edge>
    <edge source="n1" target="n33">
    </edge>
    <edge source="n4" target="n33">
    </edge>
    <edge source="n5" target="n33">
    </edge>
    <edge source="n8" target="n33">
    </edge>
    <edge source="n9" target="n33">
    </edge>
    <edge source="n10" target="n33">
    </edge>
    <edge source="n11" target="n33">
    </edge>
    <edge source="n12" target="n33">
    </edge>
    <edge source="n15" target="n33">
    </edge>
    <edge source="n17" target="n33">
    </edge>
    <edge source="n19" target="n33">
    </edge>
    <edge source="n20" target="n33">
    </edge>
    <edge source="n21" target="n33">
    </edge>
    <edge source="n25" target="n33">
    </edge>
    <edge source="n26" target="n33">
    </edge>
    <edge source="n28" target="n33">
    </edge>
    <edge source="n29" target="n33">
    </edge>
    <edge source="n30" target="n33">
    </edge>
    <edge source="n35" target="n33">
    </edge>
    <edge source="n40" target="n33">
    </edge>
    <edge source="n41" target="n33">
    </edge>
    <edge source="n44" target="n33">
    </edge>
    <edge source="n45" target="n33">
    </edge>
    <edge source="n46" target="n33">
    </edge>
    <edge source="n47" target="n33">
    </edge>
    <edge source="n0" target="n34">
    </edge>
    <edge source="n2" target="n34">
    </edge>
    <edge source="n4" target="n34">
    </edge>
    <edge source="n5" target="n34">
    </edge>
    <edge source="n6" target="n34">
    </edge>
    <edge source="n7" target="n34">
    </edge>
    <edge source="n10" target="n34">
    </edge>
    <edge source="n11" target="n34">
    </edge>
    <edge source="n14" target="n34">
    </edge>
    <edge source="n17" target="n34">
    </edge>
    <edge source="n18" target="n34">
    </edge>
    <edge source="n19" target="n34">
    </edge>
    <edge source="n20" target="n34">
    </edge>
    <edge source="n21" target="n34">
    </edge>
    <edge source="n22" target="n34">
    </edge>
    <edge source="n23" target="n34">
    </edge>
    <edge source="n24" target="n34">
    </edge>
    <edge source="n26" target="n34">
    </edge>
    <edge source="n30" target="n34">
    </edge>
    <edge source="n31" target="n34">
    </edge>
    <edge source="n33" target="n34">
    </edge>
    <edge source="n35" target="n34">
    </edge>
    <edge source="n38" target="n34">
    </edge>
    <edge source="n40" target="n34">
    </edge>
    <edge source="n41" target="n34">
    </edge>
    <edge source="n45" target="n34">
    </edge>
    <edge source="n47" target="n34">
    </edge>
    <edge source="n0" target="n35">
    </edge>
    <edge source="n1" target="n35">
    </edge>
    <edge source="n3" target="n35">
    </edge>
    <edge source="n5" target="n35">
    </edge>
    <edge source="n6" target="n35">
    </edge>
    <edge source="n8" target="n35">
    </edge>
    <edge source="n10" target="n35">
    </edge>
    <edge source="n12" target="n35">
    </edge>
    <edge source="n14" target="n35">
    </edge>
    <edge source="n16" target="n35">
    </edge>
    <edge source="n18" target="n35">
    </edge>
    <edge source="n19" target="n35">
    </edge>
    <edge source="n20" target="n35">
    </edge>
    <edge source="n22" target="n35">
    </edge>
    <edge source="n23" target="n35">
    </edge>
    <edge source="n24" target="n35">
    </edge>
    <edge source="n25" target="n35">
    </edge>
    <edge source="n26" target="n35">
    </edge>
    <edge source="n28" target="n35">
    </edge>
    <edge source="n30" target="n35">
    </edge>
    <edge source="n31" target="n35">
    </edge>
    <edge source="n33" target="n35">
    </edge>
    <edge source="n35" target="n47">
    </edge>
    <edge source="n36" target="n35">
    </edge>
    <edge source="n37" target="n35">
    </edge>
    <edge source="n40" target="n35">
    </edge>
    <edge source="n42" target="n35">
    </edge>
    <edge source="n43" target="n35">
    </edge>
    <edge source="n45" target="n35">
    </edge>
    <edge source="n47" target="n35">
    </edge>
    <edge source="n0" target="n36">
    </edge>
    <edge source="n2" target="n36">
    </edge>
    <edge source="n5" target="n36">
    </edge>
    <edge source="n7" target="n36">
    </edge>
    <edge source="n8" target="n36">
    </edge>
    <edge source="n9" target="n36">
    </edge>
    <edge source="n12" target="n36">
    </edge>
    <edge source="n13" target="n36">
    </edge>
    <edge source="n15" target="n36">
    </edge>
    <edge source="n16" target="n36">
    </edge>
    <edge source="n17" target="n36">
    </edge>
    <edge source="n18" target="n36">
    </edge>
    <edge source="n22" target="n36">
    </edge>
    <edge source="n23" target="n36">
    </edge>
    <edge source="n27" target="n36">
    </edge>
    <edge source="n29" target="n36">
    </edge>
    <edge source="n30" target="n36">
    </edge>
    <edge source="n31" target="n36">
    </edge>
    <edge source="n33" target="n36">
    </edge>
    <edge source="n34" target="n36">
    </edge>
    <edge source="n35" target="n36">
    </edge>
    <edge source="n36" target="n47">
    </edge>
    <edge source="n39" target="n36">
    </edge>
    <edge source="n40" target="n36">
    </edge>
    <edge source="n42" target="n36">
    </edge>
    <edge source="n43" target="n36">
    </edge>
    <edge source="n44" target="n36">
    </edge>
    <edge source="n45" target="n36">
    </edge>
    <edge source="n46" target="n36">
    </edge>
    <edge source="n0" target="n37">
    </edge>
    <edge source="n1" target="n37">
    </edge>
    <edge source="n6" target="n37">
    </edge>
    <edge source="n7" target="n37">
    </edge>
    <edge source="n9" target="n37">
    </edge>
    <edge source="n11" target="n37">
    </edge>
    <edge source="n12" target="n37">
    </edge>
    <edge source="n13" target="n37">
    </edge>
    <edge source="n16" target="n37">
    </edge>
    <edge source="n17" target="n37">
    </edge>
    <edge source="n18" target="n37">
    </edge>
    <edge source="n19" target="n37">
    </edge>
    <edge source="n20" target="n37">
    </edge>
    <edge source="n22" target="n37">
    </edge>
    <edge source="n23" target="n37">
    </edge>
    <edge source="n25" target="n37">
    </edge>
    <edge source="n29" target="n37">
    </edge>
    <edge source="n31" target="n37">
    </edge>
    <edge source="n32" target="n37">
    </edge>
    <edge source="n33" target="n37">
    </edge>
    <edge source="n34" target="n37">
    </edge>
    <edge source="n35" target="n37">
    </edge>
    <edge source="n37" target="n47">
    </edge>
    <edge source="n39" target="n37">
    </edge>
    <edge source="n40" target="n37">
    </edge>
    <edge source="n44" target="n37">
    </edge>
    <edge source="n47" target="n37">
    </edge>
    <edge source="n1" target="n38">
    </edge>
    <edge source="n3" target="n38">
    </edge>
    <edge source="n5" target="n38">
    </edge>
    <edge source="n6" target="n38">
    </edge>
    <edge source="n8" target="n38">
    </edge>
    <edge source="n10" target="n38">
    </edge>
    <edge source="n12" target="n38">
    </edge>
    <edge source="n13" target="n38">
    </edge>
    <edge source="n14" target="n38">
    </edge>
    <edge source="n15" target="n38">
    </edge>
    <edge source="n17" target="n38">
    </edge>
    <edge source="n19" target="n38">
    </edge>
    <edge source="n22" target="n38">
    </edge>
    <edge source="n24" target="n38">
    </edge>
    <edge source="n25" target="n38">
    </edge>
    <edge source="n26" target="n38">
    </edge>
    <edge source="n27" target="n38">
    </edge>
    <edge source="n29" target="n38">
    </edge>
    <edge source="n30" target="n38">
    </edge>
    <edge source="n31" target="n38">
    </edge>
    <edge source="n32" target="n38">
    </edge>
    <edge source="n34" target="n38">
    </edge>
    <edge source="n38" target="n47">
    </edge>
    <edge source="n40" target="n38">
    </edge>
    <edge source="n41" target="n38">
    </edge>
    <edge source="n42" target="n38">
    </edge>
    <edge source="n43" target="n38">
    </edge>
    <edge source="n45" target="n38">
    </edge>
    <edge source="n46" target="n38">
    </edge>
    <edge source="n47" target="n38">
    </edge>
    <edge source="n1" target="n39">
    </edge>
    <edge source="n3" target="n39">
    </edge>
    <edge source="n6" target="n39">
    </edge>
    <edge source="n8" target="n39">
    </edge>
    <edge source="n9" target="n39">
    </edge>
    <edge source="n10" target="n39">
    </edge>
    <edge source="n12" target="n39">
    </edge>
    <edge source="n13" target="n39">
    </edge>
    <edge source="n15" target="n39">
    </edge>
    <edge source="n17" target="n39">
    </edge>
    <edge source="n19" target="n39">
    </edge>
    <edge source="n22" target="n39">
    </edge>
    <edge source="n26" target="n39">
    </edge>
    <edge source="n28" target="n39">
    </edge>
    <edge source="n33" target="n39">
    </edge>
    <edge source="n34" target="n39">
    </edge>
    <edge source="n37" target="n39">
    </edge>
    <edge source="n38" target="n39">
    </edge>
    <edge source="n41" target="n39">
    </edge>
    <edge source="n42" target="n39">
    </edge>
    <edge source="n43" target="n39">
    </edge>
    <edge source="n44" target="n39">
    </edge>
    <edge source="n45" target="n39">
    </edge>
    <edge source="n46" target="n39">
    </edge>
    <edge source="n2" target="n40">
    </edge>
    <edge source="n6" target="n40">
    </edge>
    <edge source="n7" target="n40">
    </edge>
    <edge source="n9" target="n40">
    </edge>
    <edge source="n10" target="n40">
    </edge>
    <edge source="n11" target="n40">
    </edge>
    <edge source="n13" target="n40">
    </edge>
    <edge source="n17" target="n40">
    </edge>
    <edge source="n18" target="n40">
    </edge>
    <edge source="n19" target="n40">
    </edge>
    <edge source="n21" target="n40">
    </edge>
    <edge source="n23" target="n40">
    </edge>
    <edge source="n24" target="n40">
    </edge>
    <edge source="n25" target="n40">
    </edge>
    <edge source="n27" target="n40">
    </edge>
    <edge source="n29" target="n40">
    </edge>
    <edge source="n30" target="n40">
    </edge>
    <edge source="n33" target="n40">
    </edge>
    <edge source="n34" target="n40">
    </edge>
    <edge source="n35" target="n40">
    </edge>
    <edge source="n36" target="n40">
    </edge>
    <edge source="n37" target="n40">
    </edge>
    <edge source="n42" target="n40">
    </edge>
    <edge source="n43" target="n40">
    </edge>
    <edge source="n45" target="n40">
    </edge>
    <edge source="n46" target="n40">
    </edge>
    <edge source="n47" target="n40">
    </edge>
    <edge source="n0" target="n41">
    </edge>
    <edge source="n3" target="n41">
    </edge>
    <edge source="n4" target="n41">
    </edge>
    <edge source="n6" target="n41">
    </edge>
    <edge source="n7" target="n41">
    </edge>
    <edge source="n8" target="n41">
    </edge>
    <edge source="n9" target="n41">
    </edge>
    <edge source="n10" target="n41">
    </edge>
    <edge source="n17" target="n41">
    </edge>
    <edge source="n18" target="n41">
    </edge>
    <edge source="n22" target="n41">
    </edge>
    <edge source="n25" target="n41">
    </edge>
    <edge source="n31" target="n41">
    </edge>
    <edge source="n32" target="n41">
    </edge>
    <edge source="n33" target="n41">
    </edge>
    <edge source="n34" target="n41">
    </edge>
    <edge source="n35" target="n41">
    </edge>
    <edge source="n37" target="n41">
    </edge>
    <edge source="n38" target="n41">
    </edge>
    <edge source="n39" target="n41">
    </edge>
    <edge source="n40" target="n41">
    </edge>
    <edge source="n41" target="n47">
    </edge>
    <edge source="n44" target="n41">
    </edge>
    <edge source="n46" target="n41">
    </edge>
    <edge source="n47" target="n41">
    </edge>
    <edge source="n0" target="n42">
    </edge>
    <edge source="n5" target="n42">
    </edge>
    <edge source="n9" target="n42">
    </edge>
    <edge source="n11" target="n42">
    </edge>
    <edge source="n12" target="n42">
    </edge>
    <edge source="n13" target="n42">
    </edge>
    <edge source="n14" target="n42">
    </edge>
    <edge source="n15" target="n42">
    </edge>
    <edge source="n16" target="n42">
    </edge>
    <edge source="n19" target="n42">
    </edge>
    <edge source="n21" target="n42">
    </edge>
    <edge source="n22" target="n42">
    </edge>
    <edge source="n23" target="n42">
    </edge>
    <edge source="n24" target="n42">
    </edge>
    <edge source="n26" target="n42">
    </edge>
    <edge source="n29" target="n42">
    </edge>
    <edge source="n33" target="n42">
    </edge>
    <edge source="n34" target="n42">
    </edge>
    <edge source="n35" target="n42">
    </edge>
    <edge source="n36" target="n42">
    </edge>
    <edge source="n39" target="n42">
    </edge>
    <edge source="n42" target="n47">
    </edge>
    <edge source="n44" target="n42">
    </edge>
    <edge source="n45" target="n42">
    </edge>
    <edge source="n47" target="n42">
    </edge>
    <edge source="n2" target="n43">
    </edge>
    <edge source="n4" target="n43">
    </edge>
    <edge source="n5" target="n43">
    </edge>
    <edge source="n6" target="n43">
    </edge>
    <edge source="n8" target="n43">
    </edge>
    <edge source="n9" target="n43">
    </edge>
    <edge source="n10" target="n43">
    </edge>
    <edge source="n11" target="n43">
    </edge>
    <edge source="n15" target="n43">
    </edge>
    <edge source="n17" target="n43">
    </edge>
    <edge source="n19" target="n43">
    </edge>
    <edge source="n20" target="n43">
    </edge>
    <edge source="n21" target="n43">
    </edge>
    <edge source="n22" target="n43">
    </edge>
    <edge source="n24" target="n43">
    </edge>
    <edge source="n27" target="n43">
    </edge>
    <edge source="n30" target="n43">
    </edge>
    <edge source="n32" target="n43">
    </edge>
    <edge source="n33" target="n43">
    </edge>
    <edge source="n35" target="n43">
    </edge>
    <edge source="n37" target="n43">
    </edge>
    <edge source="n38" target="n43">
    </edge>
    <edge source="n39" target="n43">
    </edge>
    <edge source="n44" target="n43">
    </edge>
    <edge source="n2" target="n44">
    </edge>
    <edge source="n3" target="n44">
    </edge>
    <edge source="n4" target="n44">
    </edge>
    <edge source="n6" target="n44">
    </edge>
    <edge source="n8" target="n44">
    </edge>
    <edge source="n9" target="n44">
    </edge>
    <edge source="n10" target="n44">
    </edge>
    <edge source="n11" target="n44">
    </edge>
    <edge source="n14" target="n44">
    </edge>
    <edge source="n15" target="n44">
    </edge>
    <edge source="n16" target="n44">
    </edge>
    <edge source="n17" target="n44">
    </edge>
    <edge source="n21" target="n44">
    </edge>
    <edge source="n22" target="n44">
    </edge>
    <edge source="n23" target="n44">
    </edge>
    <edge source="n25" target="n44">
    </edge>
    <edge source="n28" target="n44">
    </edge>
    <edge source="n29" target="n44">
    </edge>
    <edge source="n32" target="n44">
    </edge>
    <edge source="n33" target="n44">
    </edge>
    <edge source="n36" target="n44">
    </edge>
    <edge source="n37" target="n44">
    </edge>
    <edge source="n38" target="n44">
    </edge>
    <edge source="n39" target="n44">
    </edge>
    <edge source="n40" target="n44">
    </edge>
    <edge source="n41" target="n44">
    </edge>
    <edge source="n42" target="n44">
    </edge>
    <edge source="n43" target="n44">
    </edge>
    <edge source="n44" target="n47">
    </edge>
    <edge source="n45" target="n44">
    </edge>
    <edge source="n46" target="n44">
    </edge>
    <edge source="n1" target="n45">
    </edge>
    <edge source="n3" target="n45">
    </edge>
    <edge source="n5" target="n45">
    </edge>
    <edge source="n7" target="n45">
    </edge>
    <edge source="n8" target="n45">
    </edge>
    <edge source="n9" target="n45">
    </edge>
    <edge source="n11" target="n45">
    </edge>
    <edge source="n12" target="n45">
    </edge>
    <edge source="n13" target="n45">
    </edge>
    <edge source="n15" target="n45">
    </edge>
    <edge source="n17" target="n45">
    </edge>
    <edge source="n18" target="n45">
    </edge>
    <edge source="n20" target="n45">
    </edge>
    <edge source="n21" target="n45">
    </edge>
    <edge source="n24" target="n45">
    </edge>
    <edge source="n26" target="n45">
    </edge>
    <edge source="n27" target="n45">
    </edge>
    <edge source="n30" target="n45">
    </edge>
    <edge source="n31" target="n45">
    </edge>
    <edge source="n33" target="n45">
    </edge>
    <edge source="n34" target="n45">
    </edge>
    <edge source="n36" target="n45">
    </edge>
    <edge source="n37" target="n45">
    </edge>
    <edge source="n38" target="n45">
    </edge>
    <edge source="n39" target="n45">
    </edge>
    <edge source="n40" target="n45">
    </edge>
    <edge source="n42" target="n45">
    </edge>
    <edge source="n45" target="n47">
    </edge>
    <edge source="n47" target="n45">
    </edge>
    <edge source="n0" target="n46">
    </edge>
    <edge source="n2" target="n46">
    </edge>
    <edge source="n5" target="n46">
    </edge>
    <edge source="n7" target="n46">
    </edge>
    <edge source="n9" target="n46">
    </edge>
    <edge source="n11" target="n46">
    </edge>
    <edge source="n12" target="n46">
    </edge>
    <edge source="n14" target="n46">
    </edge>
    <edge source="n15" target="n46">
    </edge>
    <edge source="n16" target="n46">
    </edge>
    <edge source="n17" target="n46">
    </edge>
    <edge source="n18" target="n46">
    </edge>
    <edge source="n21" target="n46">
    </edge>
    <edge source="n22" target="n46">
    </edge>
    <edge source="n23" target="n46">
    </edge>
    <edge source="n24" target="n46">
    </edge>
    <edge source="n27" target="n46">
    </edge>
    <edge source="n28" target="n46">
    </edge>
    <edge source="n29" target="n46">
    </edge>
    <edge source="n30" target="n46">
    </edge>
    <edge source="n31" target="n46">
    </edge>
    <edge source="n34" target="n46">
    </edge>
    <edge source="n36" target="n46">
    </edge>
    <edge source="n38" target="n46">
    </edge>
    <edge source="n41" target="n46">
    </edge>
    <edge source="n42" target="n46">
    </edge>
    <edge source="n44" target="n46">
    </edge>
    <edge source="n45" target="n46">
    </edge>
    <edge source="n46" target="n47">
    </edge>
    <edge source="n47" target="n46">
    </edge>
  </graph>
</graphml>
